// Jest Snapshot v1, https://goo.gl/fbAQLP

exports[`Render message. 1`] = `
<div
  className="card message"
>
  <div
    className="card-body"
  >
    <h3
      className="card-title"
    >
      <a
        href="/user/test"
        onClick={[Function]}
      >
        test
      </a>
    </h3>
    <p
      className="card-text"
    >
      This is a test.
    </p>
  </div>
  <img
    className="card-img-bottom"
  />
</div>
`;

exports[`Render user 1`] = `
<div
  className="card"
>
  <div
    className="card-body"
  >
    <h3
      className="card-title"
    >
      Test
    </h3>
    <p
      className="card-text"
    >
      This is a test.
    </p>
  </div>
  <img
    className="card-img-bottom"
    src="http://tinyurl.com/yatzpcu4"
  />
  <a
    class="btn btn-primary"
  >
    Go somewhere
  </a>
</div>
`;
